…
```
## # A tibble: 2 × 11
##     mpg   cyl  disp    hp  drat    wt  qsec    vs    am  gear  carb
##   <dbl> <dbl> <dbl> <dbl> <dbl> <dbl> <dbl> <dbl> <dbl> <dbl> <dbl>
## 1  21       6   160   110  3.9   2.88  17.0     0     1     4     4
## 2  21.4     6   258   110  3.08  3.22  19.4     1     0     3     1
```

```r
# selecting not the third and fifth record
mtcars[c(-3,-5),]
```

```
## # A tibble: 30 × 11
##      mpg   cyl  disp    hp  drat    wt  qsec    vs    am  gear  carb
##    <dbl> <dbl> <dbl> <dbl> <dbl> <dbl> <dbl> <dbl> <dbl> <dbl> <dbl>
##  1  21       6  160    110  3.9   2.62  16.5     0     1     4     4
##  2  21       6  160    110  3.9   2.88  17.0     0     1     4     4
##  3  21.4     6  258    110  3.08  3.22  19.4     1     0     3     1
##  4  18.1     6  225    105  2.76  3.46  20.2     1     0     3     1
##  5  14.3     8  360    245  3.21  3.57  15.8     0     0     3     4
##  6  24.4     4  147.    62  3.69  3.19  20       1     0     4     2
##  7  22.8     4  141.    95  3.92  3.15  22.9     1     0     4     2
##  8  19.2     6  168.   123  3.92  3.44  18.3     1     0     4     4
##  9  17.8     6  168.   123  3.92  3.44  18.9     1     0     4     4
## 10  16.4     8  276.   180  3.07  4.07  17.4     0     0     3     3
## # … with 20 more rows
```
…
 !(a & b) is the same as !a | !b
 !(a | b) is the same as !a & !b 


```r
 subset(mtcars, !(cyl  == 4 & gear == 4))
```

```
## # A tibble: 24 × 11
##      mpg   cyl  disp    hp  drat    wt  qsec    vs    am  gear  carb
##    <dbl> <dbl> <dbl> <dbl> <dbl> <dbl> <dbl> <dbl> <dbl> <dbl> <dbl>
##  1  21       6  160    110  3.9   2.62  16.5     0     1     4     4
##  2  21       6  160    110  3.9   2.88  17.0     0     1     4     4
##  3  21.4     6  258    110  3.08  3.22  19.4     1     0     3     1
##  4  18.7     8  360    175  3.15  3.44  17.0     0     0     3     2
##  5  18.1     6  225    105  2.76  3.46  20.2     1     0     3     1
##  6  14.3     8  360    245  3.21  3.57  15.8     0     0     3     4
##  7  19.2     6  168.   123  3.92  3.44  18.3     1     0     4     4
##  8  17.8     6  168.   123  3.92  3.44  18.9     1     0     4     4
##  9  16.4     8  276.   180  3.07  4.07  17.4     0     0     3     3
## 10  17.3     8  276.   180  3.07  3.73  17.6     0     0     3     3
## # … with 14 more rows
```

```r
 # is the same as 

 subset(mtcars, !cyl == 4 | !gear == 4 )
```

```
## # A tibble: 24 × 11
##      mpg   cyl  disp    hp  drat    wt  qsec    vs    am  gear  carb
##    <dbl> <dbl> <dbl> <dbl> <dbl> <dbl> <dbl> <dbl> <dbl> <dbl> <dbl>
##  1  21       6  160    110  3.9   2.62  16.5     0     1     4     4
##  2  21       6  160    110  3.9   2.88  17.0     0     1     4     4
##  3  21.4     6  258    110  3.08  3.22  19.4     1     0     3     1
##  4  18.7     8  360    175  3.15  3.44  17.0     0     0     3     2
##  5  18.1     6  225    105  2.76  3.46  20.2     1     0     3     1
##  6  14.3     8  360    245  3.21  3.57  15.8     0     0     3     4
##  7  19.2     6  168.   123  3.92  3.44  18.3     1     0     4     4
##  8  17.8     6  168.   123  3.92  3.44  18.9     1     0     4     4
##  9  16.4     8  276.   180  3.07  4.07  17.4     0     0     3     3
## 10  17.3     8  276.   180  3.07  3.73  17.6     0     0     3     3
## # … with 14 more rows
```
…
```
## # A tibble: 2 × 11
##     mpg   cyl  disp    hp  drat    wt  qsec    vs    am  gear  carb
##   <dbl> <dbl> <dbl> <dbl> <dbl> <dbl> <dbl> <dbl> <dbl> <dbl> <dbl>
## 1  24.4     4  147.    62  3.69  3.19  20       1     0     4     2
## 2  22.8     4  141.    95  3.92  3.15  22.9     1     0     4     2
```

```r
mtcars %>% filter(hp > 100 | cyl == 4)
```

```
## # A tibble: 32 × 11
##      mpg   cyl  disp    hp  drat    wt  qsec    vs    am  gear  carb
##    <dbl> <dbl> <dbl> <dbl> <dbl> <dbl> <dbl> <dbl> <dbl> <dbl> <dbl>
##  1  21       6  160    110  3.9   2.62  16.5     0     1     4     4
##  2  21       6  160    110  3.9   2.88  17.0     0     1     4     4
##  3  22.8     4  108     93  3.85  2.32  18.6     1     1     4     1
##  4  21.4     6  258    110  3.08  3.22  19.4     1     0     3     1
##  5  18.7     8  360    175  3.15  3.44  17.0     0     0     3     2
##  6  18.1     6  225    105  2.76  3.46  20.2     1     0     3     1
##  7  14.3     8  360    245  3.21  3.57  15.8     0     0     3     4
##  8  24.4     4  147.    62  3.69  3.19  20       1     0     4     2
##  9  22.8     4  141.    95  3.92  3.15  22.9     1     0     4     2
## 10  19.2     6  168.   123  3.92  3.44  18.3     1     0     4     4
## # … with 22 more rows
```
…
##  Ordering

Ordering data in base R is annoying. I'm not even going to bother showing it to you. But it's pretty simple with dplyr's arrange() function.


```r
# ascending
mtcars %>% arrange(mpg)  
```

```
## # A tibble: 32 × 11
##      mpg   cyl  disp    hp  drat    wt  qsec    vs    am  gear  carb
##    <dbl> <dbl> <dbl> <dbl> <dbl> <dbl> <dbl> <dbl> <dbl> <dbl> <dbl>
##  1  10.4     8  472    205  2.93  5.25  18.0     0     0     3     4
##  2  10.4     8  460    215  3     5.42  17.8     0     0     3     4
##  3  13.3     8  350    245  3.73  3.84  15.4     0     0     3     4
##  4  14.3     8  360    245  3.21  3.57  15.8     0     0     3     4
##  5  14.7     8  440    230  3.23  5.34  17.4     0     0     3     4
##  6  15       8  301    335  3.54  3.57  14.6     0     1     5     8
##  7  15.2     8  276.   180  3.07  3.78  18       0     0     3     3
##  8  15.2     8  304    150  3.15  3.44  17.3     0     0     3     2
##  9  15.5     8  318    150  2.76  3.52  16.9     0     0     3     2
## 10  15.8     8  351    264  4.22  3.17  14.5     0     1     5     4
## # … with 22 more rows
```

```r
#descending
mtcars %>% arrange(desc(mpg))
```

```
## # A tibble: 32 × 11
##      mpg   cyl  disp    hp  drat    wt  qsec    vs    am  gear  carb
##    <dbl> <dbl> <dbl> <dbl> <dbl> <dbl> <dbl> <dbl> <dbl> <dbl> <dbl>
##  1  33.9     4  71.1    65  4.22  1.84  19.9     1     1     4     1
##  2  32.4     4  78.7    66  4.08  2.2   19.5     1     1     4     1
##  3  30.4     4  75.7    52  4.93  1.62  18.5     1     1     4     2
##  4  30.4     4  95.1   113  3.77  1.51  16.9     1     1     5     2
##  5  27.3     4  79      66  4.08  1.94  18.9     1     1     4     1
##  6  26       4 120.     91  4.43  2.14  16.7     0     1     5     2
##  7  24.4     4 147.     62  3.69  3.19  20       1     0     4     2
##  8  22.8     4 108      93  3.85  2.32  18.6     1     1     4     1
##  9  22.8     4 141.     95  3.92  3.15  22.9     1     0     4     2
## 10  21.5     4 120.     97  3.7   2.46  20.0     1     0     3     1
## # … with 22 more rows
```
…
